{

        "name": {
          "type": "string",
          "title": "Full Names"
        },
        "contacts": {
          "type": "object",
          "title": "Contacts",
          "properties":{
            "postal_address":{
              "type":"string",
              "title":"Postal Address"
            },
            "telephone_number":{
              "type":"string",
              "title":"telephone"
            },
            "email":{
              "type":"string",
              "title":"Email"
            }
          }
        },
        "place of birth":{
          "type":"string",
          "title":"Place Of Birth"
        },
        "date of birth":{
          "type":"date",
          "title":"Date Of Birth"
        },
        "lived in kenya":{
          "type":"string",
          "title":"Have you continuously lived in kenya since birth?"
        },
        "nationality at birth":{
          "type":"string",
          "title":"Nationality At Birth If Any"
        },
        "lost nationality":{
          "type":"string",
          "title":"Circumstances Under which nationality was lost"
        },
        "occupation":{
          "type":"string",
          "title":"Occupation"
        },
        "marital status":{
          "type":"string",
          "title":"Marital Status",
          "enum":[
            "single",
            "married",
            "widowed",
            "divorced",
            "separated"
            ]
        },
        "if married give":{
        "type":"object",
        "title":"marriage details",
        "properties":{
          "date of marriage":{
            "type":"date",
            "title":"Date Of Marriage"
          },
          "place of marriage":{
            "type":"string",
            "title":"Place Of Marriage"
          },
          "Name Of Spouse":{
            "type":"string",
            "title":"Name Of Spouse"
          }
        }
        },
        "Father's full name":{
          "type":"string",
          "title":"Father's Full Name"
        }
      }
