{
        "name": {
          "type": "string",
          "title": "name"
        },
        "address": {
          "type": "string",
          "title": "address"
        },
         "Residence At Time Of Application": {
          "type": "string",
          "title": "Residence At Time Of Application"
        }
}


