{
    "Person With Disability": {
      "type": "object",
      "title": "Citizenship For Person With Disability",
      "properties": {
        "name": {
          "type": "string",
          "title": "Fullname"
        },
        "place_of_birth": {
          "type": "string",
          "title": "Place Of Birth"
        },
        "date_of_birth": {
          "type": "date",
          "title": "Date Of Birth"
        },
        "present_address": {
          "type": "string",
          "title": "Present Address"
        },
        "nationality_of_birth": {
          "type": "string",
          "title": "Nationality Of Birth"
        },
        "present_nationality_if_different": {
          "type": "string",
          "title": "Present Nationality If Different"
        },
         "if_no_nationality": {
          "type": "string",
          "title": "If no nationality give circumstances in which the nationality was lost"
        },
        "nature_of_disability": {
          "type": "string",
          "title": "Nature of disability"
        },
        "Particulars_of_disability": {
          "type": "string",
          "title": "Particulars of Disability"
        }
      }
    }
}