{

    "Kenyan Student/research/internship":{
      "type":"object",
      "title":"Kenyan Student, research or internship",
      "properties":{
        "file number":{
          "type":"string",
          "title":"File Number"
        },
        "nationality":{
          "type":"string",
          "title":"Nationality"
        },
        "passport number":{
          "type":"string",
          "title":"Passport Number"
        },
        "full name of applicant":{
          "type":"string",
          "title":"Full name of applicant"
        },
        "address":{
          "type":"string",
          "title":"Address"
        },
        "date of birth":{
          "type":"date",
          "title":"Date Of Birth"
        },
        "place of issue":{
          "type":"string",
          "title":"Place Of Issue"
        },
        "parent's name":{
          "type":"string",
          "title":"Parent's Name"
        },
        "parent's id or passport or permit":{
          "type":"string",
          "title":"Parent's ID/Passport or Permit"
        },
        "particulars of institution":{
          "type":"string",
          "title":"Particulars Of Institution"
        },
        "admission number":{
          "type":"string",
          "title":"Admission number"
        },
        "level of education":{
          "type":"string",
          "title":"Level of education"
        },
        "certificate of good conduct":{
          "type":"string",
          "title":"Copy Of Certificate Of Good Conduct(where applicable)"
        }
      }
    }
  }
